{
    "image": "https://catagolue.hatsya.com/autogen/nfts/5.gif",
    "external_url": "https://catagolue.hatsya.com/nfts/5",
    "name": "Sprayer",
    "attributes": [
        {
            "display_type": "date",
            "trait_type": "discovery date",
            "value": 1620561600
        },
        {
            "trait_type": "object type",
            "value": "spaceship"
        },
        {
            "trait_type": "period",
            "value": 6
        },
        {
            "trait_type": "direction",
            "value": "oblique"
        },
        {
            "trait_type": "speed",
            "value": "(2,1)c/6"
        }
    ],
    "background_color": "000000",
    "description": "The second elementary knightship to be discovered. This supports a period-12 block puffer attachment.\n\nDiscovered by Adam P. Goucher on 2021-05-09.\n\nSee the [LifeWiki page](https://conwaylife.com/wiki/Sprayer) and [Catagolue page](https://catagolue.hatsya.com/nfts/5) for further information."
}